{
    "shebang": {
        "prefix": "shb",
        "body": [
            "#!/usr/bin/env raku",
            "$0"
        ],
        "description": "Code snippet for shebang in raku"
    },
    "single-line-comment": {
        "prefix": "slcom",
        "body": [
            "# ${1:single-line-comment}",
            "$0"
        ],
        "description": "Code snippet for single line comment"
    },
    "embedded-comment": {
        "prefix": "emcom",
        "body": [
            "#`( ${1:embedded-comment} ) $0"
        ],
        "description": "Code snippet for embedded comment"
    },
    "multiline-comment": {
        "prefix": "mlcom",
        "body": [
            "#`[",
            "${1:multiline-comment}",
            "]",
            "$0"
        ],
        "description": "Code snippet for multiline comment"
    },
    "pod-comment": {
        "prefix": "podcom",
        "body": [
            "",
            "=begin comment",
            "${1:pod comment}",
            "=end comment",
            "",
            $0
        ],
        "description": "Code snippet for pod comment"
    },
    "scalar": {
        "prefix": "scal",
        "body": [
            "my $${1:name} = ${2:value}"$0
        ],
        "description": "Code snippet for scalar"
    },
    "array": {
        "prefix": "arr",
        "body": [
            "my @${1:name} = ${2:values}"$0
        ],
        "description": "Code snippet for array"
    },
    "hash": {
        "prefix": "hash",
        "body": [
            "my %${1:name} = ${2:key} => ${3:value}$0"
        ],
        "description": "Code snippet for hash"
    },
    "key-val in a hash": {
        "prefix": "kv",
        "body": [
            "${1:key} => ${2:value}$0"
        ],
        "description": "Code snippet for Key => Val in a hash"
    },
    "for loop": {
        "prefix": "for",
        "body": [
            "for ${1:iterable} {",
                "\t${2:block}",
                "\t}",
                "$0"
        ],
        "description": "Code snippet for for loop"
    },
    "forwhen": {
        "prefix": "forwhen",
        "body": [
            "for $1 {",
                "\twhen $2 {$3}",
                "\twhen $4 {$5}",
                "\tdefault {$6}",
                "}",
                "$0"
        ],
        "description": "Code snippet for for loop with when in the body similar to given"
    },
    "for loop with pointer": {
        "prefix": "forp",
        "body": [
            "for $1 -> $2 {"
                "\t${3:block} ;"
                "\t}"
                "$0"
        ],
        "description": "For loop with pointy block"
    },
    "Conditional1": {
        "prefix": "if",
        "body": [
            "if ${1:condition} {"
                "\t${2:block};"
                "} $0"
        ],
        "description": "If conditional"
    },
    "Conditional2": {
        "prefix": "elsif",
        "body": [
            "elsif ${1:condition} {"
                "\t${2:block};"
                "} $0"
        ],
        "description": "Else if branch"
    },
    "Conditional3": {
        "prefix": "else",
        "body": [
            "else {"
                "\t${1:block};"
                "};"
                "$0"
        ],
        "description": "Concluding else branch"
    },
    "While": {
        "prefix": "while",
        "body": [
            "while ${1:condition} {"
                "\t${2:block of code};"
                "}"
                "$0"
        ],
        "description": "while statement"
    },
    "Function": {
        "prefix": "sub",
        "body": [
            "sub ${1:name}(${2:parameters}) {"
                "\t${3:body};"
                "\t}"
                "$0"
        ],
        "description": "subroutine"
    },
    "Class": {
        "prefix": "cls",
        "body": [
            "class ${1:name} {"
                "\thas ${2:attribute};"
                "\thas ${3:attribute};"
                "\tmethod ${4:behavior}(${5:parameters}) {"
                    "\t\t${6:body};"
                    "\t}$7"
                    "}"
                    "$0"
        ],
        "description": "Class definition"
    },
    "Method": {
        "prefix": "md",
        "body": [
            "method ${1:name}(${2:parameters}) {"
                "\t$3;"
                "}"
                "$0"
        ],
        "description": "method"
    },
    "Multi Subroutines": {
        "prefix": "multi",
        "body": [
            "multi sub ${1:name}(${2:parameters}) {"
                "\t${3:body}"
                "}"
                "$0"
        ],
        "description": "multi subroutines"
    },
    "Given": {
        "prefix": "given",
        "body": [
            "given $1 {"
                "\twhen $2 {$3}"
                "\twhen $4 {$5}"
                "\tdefault {$6}"
                "}"
                "$0"
        ],
        "description": "given statement"
    },
    "Loop": {
        "prefix": "loop",
        "body": [
            "loop (${1:initializer}; ${2:conditional}; ${3:incrementer}) {"
                "\t${4:block};"
                "}"
                "$0"
        ],
        "description": "loop statement"
    },
    "Grammar": {
        "prefix": "gm",
        "body": [
            "grammar $1 {"
                "\t$2"
                "}"
                "$0"
        ],
        "description": "Creating grammar"
    },
    "Token": {
        "prefix": "token",
        "body": [
            "token $1 {$2}"
            "$0"
        ],
        "description": "token"
    },
    "Rolegrammar": {
        "prefix": "role",
        "body": [
            "role $1 {"
                "\t$2"
                "}"
                "$0"
        ],
        "description": "role grammar"
    },
    "Rulegrammar": {
        "prefix": "rule",
        "body": [
            "rule $1 {$2}"
            "$0"
        ],
        "description": "rule"
    },
    "Regex": {
        "prefix": "regex",
        "body": [
            "regex $1 {"
            "\t$2"
            "}"
            "$0"
        ],
        "description": "regex"
    },
    "Main function": {
        "prefix": "main",
        "body": [
            "sub MAIN(${1:parameters}) {"
                "\t${2:body}"
                "}"
                "$0"
        ],
        "description": "MAIN function"
    },
    "NativeCall1": {
        "prefix": "natc1",
        "body": [
            "use NativeCall;"
            "$0"
        ],
        "description": "use NativeCall"
    },
    "NativeCall2": {
        "prefix": "natc2",
        "body": [
            "sub ${1:some_argless_function}() is native(\"${2:shared_library}\") { * };"
            "$0"
        ],
        "description": "argless function"
    },
    "NativeCall3": {
        "prefix": "natc3",
        "body": [
            "sub ${1:function_name}(${2:argument_types}) returns ${3:return_type} is native(\"${4:shared_library}\") is symbol('${5:name_of_function_inside_shared_library}') { * };"
            "$0"
        ],
        "description": "specify the name of the native routine in your library"
    }
}